[
    {
        "id" : "1"
        "group_pic": "http://placehold.it/60X60",
        "name":"IITDelhi",
        "website":"http://www.iitdelhi.co.in",
        "description":"A premier institute of india"
    }
    ,{
        "id" : "2"
        "group_pic": "http://placehold.it/60X60",
        "name":"Bangalore",
        "website":"http://www.bangalore.com",
        "description":"A city in india"
    }
    ,{
        "id" : "3"
        "group_pic": "http://placehold.it/60X60",
        "name":"Delhi",
        "website":"http://www.delhi.co.in",
        "description":"The best city in india"
    }
]

